{
  "description": "Wanda the fish is back with her fortune telling powers!\n\nClick Wanda to see your fortune and again for it to disappear.\n\nIf you receive the error: 'Sorry, no wisdom for you today' be sure to install 'fortune-mod'.", 
  "name": "Wanda The Fish", 
  "shell-version": ["3.6","3.7","3.8", "3.36", "3.38", "40", "41", "42"],
  "url": "https://gitlab.com/tallero/wandathefish", 
  "uuid": "wandathefish@arcipelago.org",
  "version": 2.0
}
